{
  "development": {
    "username": "root",
    "password": null,
    "database": "database_development_procedures_orm",
    "host": "127.0.0.1",
    "dialect": "mysql",
    "dialectOptions": {
      "multipleStatements": true
    }
  },
  "test": {
    "username": "root",
    "password": null,
    "database": "database_test",
    "host": "127.0.0.1",
    "dialect": "mysql"
  },
  "production": {
    "username": "root",
    "password": null,
    "database": "database_production",
    "host": "127.0.0.1",
    "dialect": "mysql"
  }
}
